id,name,weight,price
11,Afghanistan,0.5,36455
25,Afghanistan,1,4718
39,Afghanistan,1.5,5385
53,Afghanistan,2,6052
67,Afghanistan,0.5,4052
81,Afghanistan,1,4718
95,Afghanistan,1.5,5385
109,Afghanistan,2,6052
123,Afghanistan,2.5,6720
137,Afghanistan,3,7040
151,Afghanistan,3.5,7415
165,Afghanistan,4,7677
179,Afghanistan,4.5,80445
193,Afghanistan,5,8315
207,Afghanistan,5.5,10891
221,Afghanistan,6,13354
235,Afghanistan,6.5,15928
249,Afghanistan,7,18390
263,Afghanistan,7.5,20964
277,Afghanistan,8,23425
291,Afghanistan,8.5,26001
305,Afghanistan,9,28462
319,Afghanistan,9.5,31038
333,Afghanistan,10,33498
347,Afghanistan,10.5,33839
361,Afghanistan,11,34065
375,Afghanistan,11.5,34404
389,Afghanistan,12,34632
403,Afghanistan,12.5,34972
417,Afghanistan,13,35199
431,Afghanistan,13.5,35539
445,Afghanistan,14,35765
459,Afghanistan,14.5,36106
473,Afghanistan,15,36332
487,Afghanistan,15.5,36673
501,Afghanistan,16,36900
515,Afghanistan,16.5,37238
529,Afghanistan,17,37466
543,Afghanistan,17.5,37806
557,Afghanistan,18,38034
571,Afghanistan,18.5,38374
585,Afghanistan,19,38599
599,Afghanistan,19.5,38940
613,Afghanistan,20,39167
627,Afghanistan,21,42272
641,Afghanistan,22,45379
655,Afghanistan,23,48485
669,Afghanistan,24,51590
683,Afghanistan,25,54697
697,Afghanistan,26,57802
711,Afghanistan,27,45456
725,Afghanistan,28,64015
739,Afghanistan,29,67120
753,Afghanistan,30,70227
767,Afghanistan,30.1-60,1233
781,Afghanistan,50.1-80,1233
795,Afghanistan,70.1-110,1233
809,Afghanistan,100.1-310,1233
823,Afghanistan,300.1-510,1233
837,Afghanistan,500.1-100009,1233
